{
  "name": "Doctor",
  "base": "PersistedModel",
  "strict": false,
  "idInjection": false,
  "options": {
    "validateUpsert": true
  },
  "properties": {
    "name": {
      "type": "string",
      "id": false,
      "required": true,
      "index": true,
      "comments": "Name of Doctor"
    },
    "speciality": {
      "type": "string",
      "required": true,
      "index": true,
      "comments": "Specialty of Doctor"
    },
    "yearsOfExp": {
      "type": "number",
      "comments": "Years of experience of doctor"
    },
    "mobileNumber": {
      "type": "string",
      "comments": "Mobile Number of Doctor"
    },
    "emailId": {
      "type": "string",
      "comments": "Doctor's email contact"
    },
    "imageUrl": {
      "type": "string",
      "comments": "Doctor's Image"
    }
  },
  "validations": [],
  "relations": {
    "hospitalModel": {
      "type": "belongsTo",
      "model": "HospitalModel",
      "foreignKey": ""
    }
  },
  "acls": [
    {
      "accessType": "*",
      "principalType": "ROLE",
      "principalId": "$everyone",
      "permission": "ALLOW"
    }
  ],
  "methods": {}
}
